[gd_resource type="DynamicFont" load_steps=2 format=2]

[ext_resource path="res://Puzzle/JUNGLEFE.TTF" type="DynamicFontData" id=1]

[resource]
size = 33
outline_size = 3
outline_color = Color( 0.262745, 0.121569, 0.027451, 1 )
use_filter = true
extra_spacing_char = 5
font_data = ExtResource( 1 )
