[gd_scene load_steps=8 format=2]

[ext_resource path="res://Environment/World.tscn" type="PackedScene" id=1]
[ext_resource path="res://Player/Player.tscn" type="PackedScene" id=2]
[ext_resource path="res://Music/StageMusic.tscn" type="PackedScene" id=3]
[ext_resource path="res://ExploreMode/ExploreMode.gd" type="Script" id=4]
[ext_resource path="res://Menus/PauseMenu/PauseLayer.tscn" type="PackedScene" id=5]
[ext_resource path="res://Menus/ScreenTransition/ScreenTransition.tscn" type="PackedScene" id=6]
[ext_resource path="res://Puzzle/PuzzleInterface.tscn" type="PackedScene" id=7]

[node name="ExploreMode" type="Spatial"]
script = ExtResource( 4 )

[node name="World" parent="." instance=ExtResource( 1 )]

[node name="Player" parent="." instance=ExtResource( 2 )]

[node name="StageMusic" parent="." instance=ExtResource( 3 )]

[node name="PauseLayer" parent="." instance=ExtResource( 5 )]

[node name="ScreenTransition" parent="." instance=ExtResource( 6 )]
target_scene = "res://Menus/TitleScreen/TitleScreen.tscn"

[node name="PuzzleInterface" parent="." instance=ExtResource( 7 )]
