[gd_scene load_steps=5 format=2]

[ext_resource path="res://Environment/Chest.gd" type="Script" id=1]
[ext_resource path="res://Puzzle/Chest/Treasure.tscn" type="PackedScene" id=2]
[ext_resource path="res://Puzzle/Chest/RockPile.tscn" type="PackedScene" id=3]

[sub_resource type="SphereShape" id=1]
radius = 3.16025

[node name="Chest" type="Area" groups=["chest", "diggable"]]
collision_layer = 4
collision_mask = 0
script = ExtResource( 1 )

[node name="RockPile" parent="." instance=ExtResource( 3 )]

[node name="CollisionShape" type="CollisionShape" parent="."]
transform = Transform( 0.202349, 0, 0, 0, 0.202349, 0, 0, 0, 0.202349, 0, -0.231127, 0 )
shape = SubResource( 1 )

[node name="TreasureContainer" type="Spatial" parent="."]
transform = Transform( 1, 0, 0, 0, 1, 0, 0, 0, 1, 0, 0.24021, 0 )

[node name="Treasure" parent="TreasureContainer" instance=ExtResource( 2 )]
visible = false
