[gd_scene load_steps=4 format=2]

[ext_resource path="res://Menus/TitleScreen/PauseLayer.gd" type="Script" id=1]
[ext_resource path="res://Menus/MenuTheme.tres" type="Theme" id=2]
[ext_resource path="res://Menus/Sounds/ClickSound.tscn" type="PackedScene" id=3]

[node name="PauseLayer" type="CanvasLayer"]
pause_mode = 2
layer = 3
script = ExtResource( 1 )

[node name="Panel" type="Panel" parent="."]
anchor_right = 1.0
anchor_bottom = 1.0
margin_left = 430.0
margin_top = 167.0
margin_right = -430.0
margin_bottom = -167.0
theme = ExtResource( 2 )

[node name="VBoxContainer" type="VBoxContainer" parent="Panel"]
anchor_right = 1.0
anchor_bottom = 1.0
margin_left = 62.0
margin_top = 54.0
margin_right = -62.0
margin_bottom = -54.0
custom_constants/separation = 33

[node name="Label" type="Label" parent="Panel/VBoxContainer"]
margin_right = 296.0
margin_bottom = 67.0
text = "Paused"
align = 1

[node name="Resume" type="Button" parent="Panel/VBoxContainer"]
margin_left = 10.0
margin_top = 100.0
margin_right = 286.0
margin_bottom = 167.0
size_flags_horizontal = 4
text = "Resume"

[node name="Quit" type="Button" parent="Panel/VBoxContainer"]
margin_left = 62.0
margin_top = 200.0
margin_right = 233.0
margin_bottom = 267.0
size_flags_horizontal = 4
text = "Quit"

[node name="ClickSound" parent="." instance=ExtResource( 3 )]

[connection signal="pressed" from="Panel/VBoxContainer/Resume" to="." method="_on_Resume_pressed"]
[connection signal="pressed" from="Panel/VBoxContainer/Quit" to="." method="_on_Quit_pressed"]
