[gd_scene load_steps=9 format=2]

[ext_resource path="res://Shovel/Particles.gd" type="Script" id=1]

[sub_resource type="SpatialMaterial" id=12]
flags_transparent = true
flags_unshaded = true
vertex_color_use_as_albedo = true
vertex_color_is_srgb = true

[sub_resource type="Gradient" id=7]
offsets = PoolRealArray( 0, 0.84141, 1 )
colors = PoolColorArray( 1, 1, 1, 1, 0.6, 0.6, 0.6, 1, 0.6, 0.6, 0.6, 0 )

[sub_resource type="GradientTexture" id=8]
gradient = SubResource( 7 )

[sub_resource type="Curve" id=2]
_data = [ Vector2( 0.00399999, 1 ), 0.0, 0.0, 0, 0, Vector2( 1, 0.493182 ), -2.11599, 0.0, 0, 0 ]

[sub_resource type="CurveTexture" id=3]
curve = SubResource( 2 )

[sub_resource type="ParticlesMaterial" id=11]
lifetime_randomness = 0.34
direction = Vector3( 0, 1, 0 )
spread = 15.0
flatness = 1.0
gravity = Vector3( 0, -7, 0 )
initial_velocity = 2.0
initial_velocity_random = 0.3
scale = 0.25
scale_random = 1.0
scale_curve = SubResource( 3 )
color_ramp = SubResource( 8 )

[sub_resource type="CubeMesh" id=10]
size = Vector3( 0.02, 0.02, 0.02 )

[node name="PokeWallParticles" type="Particles"]
layers = 2
material_override = SubResource( 12 )
amount = 16
lifetime = 0.5
explosiveness = 1.0
process_material = SubResource( 11 )
draw_pass_1 = SubResource( 10 )
script = ExtResource( 1 )

[node name="Timer" type="Timer" parent="."]
wait_time = 1.1
one_shot = true
autostart = true

[connection signal="timeout" from="Timer" to="." method="_on_Timer_timeout"]
